!PADS-POWERPCB-V2005.0-BASIC! DESIGN DATABASE ASCII FILE 1.0
*PARTDECAL*  ITEMS

*REMARK* NAME UNITS ORIX ORIY PIECES TERMINALS STACKS TEXT LABELS
*REMARK* PIECETYPE CORNERS WIDTHHGHT LEVEL RESTRICTIONS
*REMARK* PIECETYPE CORNERS WIDTH LEVEL PINNUM
*REMARK* XLOC YLOC BEGINANGLE DELTAANGLE
*REMARK* XLOC YLOC ORI LEVEL HEIGHT WIDTH MIRRORED HJUST VJUST
*REMARK* VISIBLE XLOC YLOC ORI LEVEL HEIGTH WIDTH MIRRORED HJUST VJUST RIGHTREADING
*REMARK* FONTSTYLE FONTFACE
*REMARK* T XLOC YLOC NMXLOC NMYLOC
*REMARK* PAD PIN STACKLINES
*REMARK* LEVEL SIZE SHAPE IDIA DRILL [PLATED]
*REMARK* LEVEL SIZE SHAPE FINORI FINLENGTH FINOFFSET DRILL [PLATED]

APF51            M 0     0      5 286 7 0 2
CLOSED 5   381000 0   
-27270000 -12187500
-27270000 -2850000
45630000 -2850000
45630000 -12187500
-27270000 -12187500
OPEN   2   381000 0   
-27315000 -5407500
-24712500 -2805000
OPEN   2   381000 0   
-27322500 63150000
-24720000 65752500
CLOSED 5   381000 0   
-27270000 56370000
-27270000 65707500
45630000 65707500
45630000 56370000
-27270000 56370000
CLOSED 5   381000 1   
-30720000 68227500
50430000 68227500
50430000 -13822500
-30720000 -13822500
-30720000 68227500
VALUE     7620000    25908000   0.000  1     1905000      190500 N   LEFT   DOWN
Regular <Romansim Stroke Font>
Ref.Des.
VALUE     8001000    25146000   0.000  1     1905000      190500 N   LEFT     UP
Regular <Romansim Stroke Font>
Part Type
T-21870000 -11887500 -21870000 -11887500  
T-20970000 -11887500 -20970000 -11887500  
T-20070000 -11887500 -20070000 -11887500  
T-19170000 -11887500 -19170000 -11887500  
T-18270000 -11887500 -18270000 -11887500  
T-17370000 -11887500 -17370000 -11887500  
T-16470000 -11887500 -16470000 -11887500  
T-15570000 -11887500 -15570000 -11887500  
T-14670000 -11887500 -14670000 -11887500  
T-13770000 -11887500 -13770000 -11887500  
T-12870000 -11887500 -12870000 -11887500  
T-11970000 -11887500 -11970000 -11887500  
T-11070000 -11887500 -11070000 -11887500  
T-10170000 -11887500 -10170000 -11887500  
T-9270000 -11887500 -9270000 -11887500  
T-8370000 -11887500 -8370000 -11887500  
T-7470000 -11887500 -7470000 -11887500  
T-6570000 -11887500 -6570000 -11887500  
T-5670000 -11887500 -5670000 -11887500  
T-4770000 -11887500 -4770000 -11887500  
T-3870000 -11887500 -3870000 -11887500  
T-2970000 -11887500 -2970000 -11887500  
T-2070000 -11887500 -2070000 -11887500  
T-1170000 -11887500 -1170000 -11887500  
T-270000 -11887500 -270000 -11887500  
T630000 -11887500 630000 -11887500  
T1530000 -11887500 1530000 -11887500  
T2430000 -11887500 2430000 -11887500  
T3330000 -11887500 3330000 -11887500  
T4230000 -11887500 4230000 -11887500  
T5130000 -11887500 5130000 -11887500  
T6030000 -11887500 6030000 -11887500  
T6930000 -11887500 6930000 -11887500  
T7830000 -11887500 7830000 -11887500  
T8730000 -11887500 8730000 -11887500  
T9630000 -11887500 9630000 -11887500  
T10530000 -11887500 10530000 -11887500  
T11430000 -11887500 11430000 -11887500  
T12330000 -11887500 12330000 -11887500  
T13230000 -11887500 13230000 -11887500  
T14130000 -11887500 14130000 -11887500  
T15030000 -11887500 15030000 -11887500  
T15930000 -11887500 15930000 -11887500  
T16830000 -11887500 16830000 -11887500  
T17730000 -11887500 17730000 -11887500  
T18630000 -11887500 18630000 -11887500  
T19530000 -11887500 19530000 -11887500  
T20430000 -11887500 20430000 -11887500  
T21330000 -11887500 21330000 -11887500  
T22230000 -11887500 22230000 -11887500  
T23130000 -11887500 23130000 -11887500  
T24030000 -11887500 24030000 -11887500  
T24930000 -11887500 24930000 -11887500  
T25830000 -11887500 25830000 -11887500  
T26730000 -11887500 26730000 -11887500  
T27630000 -11887500 27630000 -11887500  
T28530000 -11887500 28530000 -11887500  
T29430000 -11887500 29430000 -11887500  
T30330000 -11887500 30330000 -11887500  
T31230000 -11887500 31230000 -11887500  
T31230000 -3187500 31230000 -3187500  
T30330000 -3187500 30330000 -3187500  
T43830000 -4822500 44895000 -5175000  
T29430000 -3187500 29430000 -3187500  
T28530000 -3187500 28530000 -3187500  
T27630000 -3187500 27630000 -3187500  
T26730000 -3187500 26730000 -3187500  
T25830000 -3187500 25830000 -3187500  
T24930000 -3187500 24930000 -3187500  
T24030000 -3187500 24030000 -3187500  
T23130000 -3187500 23130000 -3187500  
T22230000 -3187500 22230000 -3187500  
T21330000 -3187500 21330000 -3187500  
T20430000 -3187500 20430000 -3187500  
T19530000 -3187500 19530000 -3187500  
T18630000 -3187500 18630000 -3187500  
T17730000 -3187500 17730000 -3187500  
T16830000 -3187500 16830000 -3187500  
T15930000 -3187500 15930000 -3187500  
T15030000 -3187500 15030000 -3187500  
T14130000 -3187500 14130000 -3187500  
T13230000 -3187500 13230000 -3187500  
T12330000 -3187500 12330000 -3187500  
T11430000 -3187500 11430000 -3187500  
T10530000 -3187500 10530000 -3187500  
T9630000 -3187500 9630000 -3187500  
T8730000 -3187500 8730000 -3187500  
T7830000 -3187500 7830000 -3187500  
T6930000 -3187500 6930000 -3187500  
T6030000 -3187500 6030000 -3187500  
T5130000 -3187500 5130000 -3187500  
T4230000 -3187500 4230000 -3187500  
T3330000 -3187500 3330000 -3187500  
T2430000 -3187500 2430000 -3187500  
T1530000 -3187500 1530000 -3187500  
T630000 -3187500 630000 -3187500  
T-270000 -3187500 -270000 -3187500  
T-1170000 -3187500 -1170000 -3187500  
T-2070000 -3187500 -2070000 -3187500  
T-2970000 -3187500 -2970000 -3187500  
T-3870000 -3187500 -3870000 -3187500  
T-4770000 -3187500 -4770000 -3187500  
T-5670000 -3187500 -5670000 -3187500  
T-6570000 -3187500 -6570000 -3187500  
T-7470000 -3187500 -7470000 -3187500  
T-8370000 -3187500 -8370000 -3187500  
T-9270000 -3187500 -9270000 -3187500  
T-10170000 -3187500 -10170000 -3187500  
T-11070000 -3187500 -11070000 -3187500  
T-11970000 -3187500 -11970000 -3187500  
T-12870000 -3187500 -12870000 -3187500  
T-13770000 -3187500 -13770000 -3187500  
T-14670000 -3187500 -14670000 -3187500  
T-15570000 -3187500 -15570000 -3187500  
T-16470000 -3187500 -16470000 -3187500  
T-17370000 -3187500 -17370000 -3187500  
T-18270000 -3187500 -18270000 -3187500  
T-19170000 -3187500 -19170000 -3187500  
T-25470000 -4822500 -23790000 -4995000  
T-20070000 -3187500 -20070000 -3187500  
T-20970000 -3187500 -20970000 -3187500  
T-21870000 -3187500 -21870000 -3187500  
T-21870000 56670000 -21870000 56670000  
T-20970000 56670000 -20970000 56670000  
T-20070000 56670000 -20070000 56670000  
T-19170000 56670000 -19170000 56670000  
T-18270000 56670000 -18270000 56670000  
T-17370000 56670000 -17370000 56670000  
T-16470000 56670000 -16470000 56670000  
T-15570000 56670000 -15570000 56670000  
T-14670000 56670000 -14670000 56670000  
T-13770000 56670000 -13770000 56670000  
T-12870000 56670000 -12870000 56670000  
T-11970000 56670000 -11970000 56670000  
T-11070000 56670000 -11070000 56670000  
T-10170000 56670000 -10170000 56670000  
T-9270000 56670000 -9270000 56670000  
T-8370000 56670000 -8370000 56670000  
T-7470000 56670000 -7470000 56670000  
T-6570000 56670000 -6570000 56670000  
T-5670000 56670000 -5670000 56670000  
T-4770000 56670000 -4770000 56670000  
T-3870000 56670000 -3870000 56670000  
T-2970000 56670000 -2970000 56670000  
T-2070000 56670000 -2070000 56670000  
T-1170000 56670000 -1170000 56670000  
T-270000 56670000 -270000 56670000  
T630000 56670000 630000 56670000  
T1530000 56670000 1530000 56670000  
T2430000 56670000 2430000 56670000  
T3330000 56670000 3330000 56670000  
T4230000 56670000 4230000 56670000  
T5130000 56670000 5130000 56670000  
T6030000 56670000 6030000 56670000  
T6930000 56670000 6930000 56670000  
T7830000 56670000 7830000 56670000  
T8730000 56670000 8730000 56670000  
T9630000 56670000 9630000 56670000  
T10530000 56670000 10530000 56670000  
T11430000 56670000 11430000 56670000  
T12330000 56670000 12330000 56670000  
T13230000 56670000 13230000 56670000  
T14130000 56670000 14130000 56670000  
T15030000 56670000 15030000 56670000  
T15930000 56670000 15930000 56670000  
T16830000 56670000 16830000 56670000  
T17730000 56670000 17730000 56670000  
T18630000 56670000 18630000 56670000  
T19530000 56670000 19530000 56670000  
T20430000 56670000 20430000 56670000  
T21330000 56670000 21330000 56670000  
T22230000 56670000 22230000 56670000  
T23130000 56670000 23130000 56670000  
T24030000 56670000 24030000 56670000  
T24930000 56670000 24930000 56670000  
T25830000 56670000 25830000 56670000  
T26730000 56670000 26730000 56670000  
T27630000 56670000 27630000 56670000  
T28530000 56670000 28530000 56670000  
T29430000 56670000 29430000 56670000  
T30330000 56670000 30330000 56670000  
T31230000 56670000 31230000 56670000  
T31230000 65370000 31230000 65370000  
T30330000 65370000 30330000 65370000  
T-25470000 63735000 -23790000 63562500  
T29430000 65370000 29430000 65370000  
T28515000 65370000 28515000 65370000  
T27630000 65370000 27630000 65370000  
T26730000 65370000 26730000 65370000  
T25830000 65370000 25830000 65370000  
T24930000 65370000 24930000 65370000  
T24030000 65370000 24030000 65370000  
T23130000 65370000 23130000 65370000  
T22230000 65370000 22230000 65370000  
T21330000 65370000 21330000 65370000  
T20430000 65370000 20430000 65370000  
T19530000 65370000 19530000 65370000  
T18630000 65370000 18630000 65370000  
T17730000 65370000 17730000 65370000  
T16830000 65370000 16830000 65370000  
T15930000 65370000 15930000 65370000  
T15030000 65370000 15030000 65370000  
T14130000 65370000 14130000 65370000  
T13230000 65370000 13230000 65370000  
T12330000 65370000 12330000 65370000  
T11430000 65370000 11430000 65370000  
T10530000 65370000 10530000 65370000  
T9630000 65370000 9630000 65370000  
T8730000 65370000 8730000 65370000  
T7830000 65370000 7830000 65370000  
T6930000 65370000 6930000 65370000  
T6030000 65370000 6030000 65370000  
T5130000 65370000 5130000 65370000  
T4230000 65370000 4230000 65370000  
T3330000 65370000 3330000 65370000  
T2430000 65370000 2430000 65370000  
T1530000 65370000 1530000 65370000  
T630000 65370000 630000 65370000  
T-270000 65370000 -270000 65370000  
T-1170000 65370000 -1170000 65370000  
T-2070000 65370000 -2070000 65370000  
T-2970000 65370000 -2970000 65370000  
T-3870000 65370000 -3870000 65370000  
T-4770000 65370000 -4770000 65370000  
T-5670000 65370000 -5670000 65370000  
T-6570000 65370000 -6570000 65370000  
T-7470000 65370000 -7470000 65370000  
T-8370000 65370000 -8370000 65370000  
T-9270000 65370000 -9270000 65370000  
T-10170000 65370000 -10170000 65370000  
T-11070000 65370000 -11070000 65370000  
T-11970000 65370000 -11970000 65370000  
T-12870000 65370000 -12870000 65370000  
T-13770000 65370000 -13770000 65370000  
T-14670000 65370000 -14670000 65370000  
T-15570000 65370000 -15570000 65370000  
T-16470000 65370000 -16470000 65370000  
T-17370000 65370000 -17370000 65370000  
T-18270000 65370000 -18270000 65370000  
T-19170000 65370000 -19170000 65370000  
T43830000 63735000 44895000 63382500  
T-20070000 65370000 -20070000 65370000  
T-20970000 65370000 -20970000 65370000  
T-21870000 65370000 -21870000 65370000  
T46230000 52935000 46230000 52935000  
T-26820000 13177500 -26820000 13177500  
T32130000 -11887500 32130000 -11887500  
T33030000 -11887500 33030000 -11887500  
T33930000 -11887500 33930000 -11887500  
T34830000 -11887500 34830000 -11887500  
T35730000 -11887500 35730000 -11887500  
T36630000 -11887500 36630000 -11887500  
T37530000 -11887500 37530000 -11887500  
T38430000 -11887500 38430000 -11887500  
T39330000 -11887500 39330000 -11887500  
T40230000 -11887500 40230000 -11887500  
T32130000 -3187500 32130000 -3187500  
T33030000 -3187500 33030000 -3187500  
T33930000 -3187500 33930000 -3187500  
T34830000 -3187500 34830000 -3187500  
T35730000 -3187500 35730000 -3187500  
T36630000 -3187500 36630000 -3187500  
T37530000 -3187500 37530000 -3187500  
T38430000 -3187500 38430000 -3187500  
T39330000 -3187500 39330000 -3187500  
T40230000 -3187500 40230000 -3187500  
T32130000 56670000 32130000 56670000  
T33030000 56670000 33030000 56670000  
T33930000 56670000 33930000 56670000  
T34830000 56670000 34830000 56670000  
T35730000 56670000 35730000 56670000  
T36630000 56670000 36630000 56670000  
T37530000 56670000 37530000 56670000  
T38430000 56670000 38430000 56670000  
T39330000 56670000 39330000 56670000  
T40230000 56670000 40230000 56670000  
T32130000 65370000 32130000 65370000  
T33030000 65370000 33030000 65370000  
T33930000 65370000 33930000 65370000  
T34830000 65370000 34830000 65370000  
T35730000 65370000 35730000 65370000  
T36630000 65370000 36630000 65370000  
T37530000 65370000 37530000 65370000  
T38430000 65370000 38430000 65370000  
T39330000 65370000 39330000 65370000  
T40230000 65370000 40230000 65370000  
PAD 0 3
-2 525000 RF  90.000 2550000 0   0 N
-1 0   R  
0  0   R  
PAD 63 3
-2 1050000 R   1050000 N
-1 1050000 R  
0  1050000 R  
PAD 119 3
-2 1650000 R   1650000 N
-1 1650000 R  
0  1650000 R  
PAD 185 3
-2 1650000 R   1650000 N
-1 1650000 R  
0  1650000 R  
PAD 241 3
-2 1050000 R   1050000 N
-1 1050000 R  
0  1050000 R  
PAD 245 3
-2 6750000 R   4050000 N
-1 6750000 R  
0  6750000 R  
PAD 246 3
-2 6750000 R   4050000 N
-1 6750000 R  
0  6750000 R  



*END*     OF ASCII OUTPUT FILE
