(module APF28 (layer F.Cu)
  (at 0 0)
  (path /5106554B/51069C26)
  (fp_text reference CB17 (at 12.10056 -13.89888) (layer F.SilkS)
    (effects)
  )
  (fp_text value APF28 (at 12.49934 -8.99922) (layer F.SilkS)
    (effects)
  )
  (fp_line (start 41.50106 -22.9997) (end 41.50106 -21.5011) (layer F.SilkS) (width 0.381))
  (fp_line (start 41.50106 -22.9997) (end -2.49936 -22.9997) (layer F.SilkS) (width 0.381))
  (fp_line (start -2.49936 -22.9997) (end -2.49936 -21.5011) (layer F.SilkS) (width 0.381))
  (fp_line (start 2.99974 -2.49936) (end 19.49958 -2.49936) (layer F.SilkS) (width 0.381))
  (fp_line (start 19.49958 -2.49936) (end 19.49958 -0.50038) (layer F.SilkS) (width 0.381))
  (fp_line (start 19.49958 -0.50038) (end 2.99974 -0.50038) (layer F.SilkS) (width 0.381))
  (fp_line (start 2.99974 -0.50038) (end 2.99974 -2.49936) (layer F.SilkS) (width 0.381))
  (fp_line (start 2.99974 -21.09978) (end 19.49958 -21.09978) (layer F.SilkS) (width 0.381))
  (fp_line (start 19.49958 -21.09978) (end 19.49958 -19.09826) (layer F.SilkS) (width 0.381))
  (fp_line (start 19.49958 -19.09826) (end 2.99974 -19.09826) (layer F.SilkS) (width 0.381))
  (fp_line (start 2.99974 -19.09826) (end 2.99974 -21.09978) (layer F.SilkS) (width 0.381))
  (fp_line (start -2.49936 2.49936) (end -2.49936 -22.49932) (layer F.SilkS) (width 0.381))
  (fp_line (start 41.50106 -22.49932) (end 41.50106 2.49936) (layer F.SilkS) (width 0.381))
  (fp_line (start -2.49936 2.49936) (end 41.50106 2.49936) (layer F.SilkS) (width 0.381))
  (pad H1 thru_hole circle (at 38.80612 -20.49272) (size 4.50088 4.50088) (drill 2.79908)
    (layers *.Cu *.Mask F.SilkS)
  )
  (pad 1_1 connect rect (at 19.00428 -0.09906) (size 0.20066 1.00076)
    (layers F.Cu F.Paste F.Mask)
    (clearance 0.09906)
  )
  (pad 1_2 connect rect (at 18.60296 -0.09906) (size 0.20066 1.00076)
    (layers F.Cu F.Paste F.Mask)
    (clearance 0.09906)
  )
  (pad 1_4 connect rect (at 17.80286 -0.09906) (size 0.20066 1.00076)
    (layers F.Cu F.Paste F.Mask)
    (clearance 0.09906)
  )
  (pad 1_3 connect rect (at 18.20418 -0.09906) (size 0.20066 1.00076)
    (layers F.Cu F.Paste F.Mask)
    (clearance 0.09906)
  )
  (pad 1_7 connect rect (at 16.60398 -0.09906) (size 0.20066 1.00076)
    (layers F.Cu F.Paste F.Mask)
    (clearance 0.09906)
  )
  (pad 1_8 connect rect (at 16.20266 -0.09906) (size 0.20066 1.00076)
    (layers F.Cu F.Paste F.Mask)
    (clearance 0.09906)
  )
  (pad 1_6 connect rect (at 17.00276 -0.09906) (size 0.20066 1.00076)
    (layers F.Cu F.Paste F.Mask)
    (clearance 0.09906)
  )
  (pad 1_5 connect rect (at 17.40408 -0.09906) (size 0.20066 1.00076)
    (layers F.Cu F.Paste F.Mask)
    (clearance 0.09906)
  )
  (pad 1_13 connect rect (at 14.20622 -0.09906) (size 0.20066 1.00076)
    (layers F.Cu F.Paste F.Mask)
    (clearance 0.09906)
  )
  (pad 1_14 connect rect (at 13.8049 -0.09906) (size 0.20066 1.00076)
    (layers F.Cu F.Paste F.Mask)
    (clearance 0.09906)
  )
  (pad 1_16 connect rect (at 13.0048 -0.09906) (size 0.20066 1.00076)
    (layers F.Cu F.Paste F.Mask)
    (clearance 0.09906)
  )
  (pad 1_15 connect rect (at 13.40612 -0.09906) (size 0.20066 1.00076)
    (layers F.Cu F.Paste F.Mask)
    (clearance 0.09906)
  )
  (pad 1_11 connect rect (at 15.00632 -0.09906) (size 0.20066 1.00076)
    (layers F.Cu F.Paste F.Mask)
    (clearance 0.09906)
  )
  (pad 1_12 connect rect (at 14.605 -0.09906) (size 0.20066 1.00076)
    (layers F.Cu F.Paste F.Mask)
    (clearance 0.09906)
  )
  (pad 1_10 connect rect (at 15.4051 -0.09906) (size 0.20066 1.00076)
    (layers F.Cu F.Paste F.Mask)
    (clearance 0.09906)
  )
  (pad 1_9 connect rect (at 15.80642 -0.09906) (size 0.20066 1.00076)
    (layers F.Cu F.Paste F.Mask)
    (clearance 0.09906)
  )
  (pad 1_25 connect rect (at 9.40562 -0.09906) (size 0.20066 1.00076)
    (layers F.Cu F.Paste F.Mask)
    (clearance 0.09906)
  )
  (pad 1_26 connect rect (at 9.0043 -0.09906) (size 0.20066 1.00076)
    (layers F.Cu F.Paste F.Mask)
    (clearance 0.09906)
  )
  (pad 1_28 connect rect (at 8.2042 -0.09906) (size 0.20066 1.00076)
    (layers F.Cu F.Paste F.Mask)
    (clearance 0.09906)
  )
  (pad 1_27 connect rect (at 8.60552 -0.09906) (size 0.20066 1.00076)
    (layers F.Cu F.Paste F.Mask)
    (clearance 0.09906)
  )
  (pad 1_31 connect rect (at 7.00532 -0.09906) (size 0.20066 1.00076)
    (layers F.Cu F.Paste F.Mask)
    (clearance 0.09906)
  )
  (pad 1_32 connect rect (at 6.604 -0.09906) (size 0.20066 1.00076)
    (layers F.Cu F.Paste F.Mask)
    (clearance 0.09906)
  )
  (pad 1_30 connect rect (at 7.4041 -0.09906) (size 0.20066 1.00076)
    (layers F.Cu F.Paste F.Mask)
    (clearance 0.09906)
  )
  (pad 1_29 connect rect (at 7.80542 -0.09906) (size 0.20066 1.00076)
    (layers F.Cu F.Paste F.Mask)
    (clearance 0.09906)
  )
  (pad 1_21 connect rect (at 11.00328 -0.09906) (size 0.20066 1.00076)
    (layers F.Cu F.Paste F.Mask)
    (clearance 0.09906)
  )
  (pad 1_22 connect rect (at 10.60196 -0.09906) (size 0.20066 1.00076)
    (layers F.Cu F.Paste F.Mask)
    (clearance 0.09906)
  )
  (pad 1_24 connect rect (at 9.80186 -0.09906) (size 0.20066 1.00076)
    (layers F.Cu F.Paste F.Mask)
    (clearance 0.09906)
  )
  (pad 1_23 connect rect (at 10.20318 -0.09906) (size 0.20066 1.00076)
    (layers F.Cu F.Paste F.Mask)
    (clearance 0.09906)
  )
  (pad 1_19 connect rect (at 11.80338 -0.09906) (size 0.20066 1.00076)
    (layers F.Cu F.Paste F.Mask)
    (clearance 0.09906)
  )
  (pad 1_20 connect rect (at 11.40206 -0.09906) (size 0.20066 1.00076)
    (layers F.Cu F.Paste F.Mask)
    (clearance 0.09906)
  )
  (pad 1_18 connect rect (at 12.20216 -0.09906) (size 0.20066 1.00076)
    (layers F.Cu F.Paste F.Mask)
    (clearance 0.09906)
  )
  (pad 1_17 connect rect (at 12.60348 -0.09906) (size 0.20066 1.00076)
    (layers F.Cu F.Paste F.Mask)
    (clearance 0.09906)
  )
  (pad 1_37 connect rect (at 4.60502 -0.09906) (size 0.20066 1.00076)
    (layers F.Cu F.Paste F.Mask)
    (clearance 0.09906)
  )
  (pad 1_38 connect rect (at 4.2037 -0.09906) (size 0.20066 1.00076)
    (layers F.Cu F.Paste F.Mask)
    (clearance 0.09906)
  )
  (pad 1_40 connect rect (at 3.40106 -0.09906) (size 0.20066 1.00076)
    (layers F.Cu F.Paste F.Mask)
    (clearance 0.09906)
  )
  (pad 1_39 connect rect (at 3.80492 -0.09906) (size 0.20066 1.00076)
    (layers F.Cu F.Paste F.Mask)
    (clearance 0.09906)
  )
  (pad 1_35 connect rect (at 5.40512 -0.09906) (size 0.20066 1.00076)
    (layers F.Cu F.Paste F.Mask)
    (clearance 0.09906)
  )
  (pad 1_36 connect rect (at 5.0038 -0.09906) (size 0.20066 1.00076)
    (layers F.Cu F.Paste F.Mask)
    (clearance 0.09906)
  )
  (pad 1_34 connect rect (at 5.8039 -0.09906) (size 0.20066 1.00076)
    (layers F.Cu F.Paste F.Mask)
    (clearance 0.09906)
  )
  (pad 1_33 connect rect (at 6.20522 -0.09906) (size 0.20066 1.00076)
    (layers F.Cu F.Paste F.Mask)
    (clearance 0.09906)
  )
  (pad 1_48 connect rect (at 6.20522 -2.90068) (size 0.20066 1.00076)
    (layers F.Cu F.Paste F.Mask)
    (clearance 0.09906)
  )
  (pad 1_47 connect rect (at 5.8039 -2.90068) (size 0.20066 1.00076)
    (layers F.Cu F.Paste F.Mask)
    (clearance 0.09906)
  )
  (pad 1_45 connect rect (at 5.0038 -2.90068) (size 0.20066 1.00076)
    (layers F.Cu F.Paste F.Mask)
    (clearance 0.09906)
  )
  (pad 1_46 connect rect (at 5.40512 -2.90068) (size 0.20066 1.00076)
    (layers F.Cu F.Paste F.Mask)
    (clearance 0.09906)
  )
  (pad 1_42 connect rect (at 3.80492 -2.90068) (size 0.20066 1.00076)
    (layers F.Cu F.Paste F.Mask)
    (clearance 0.09906)
  )
  (pad 1_41 connect rect (at 3.4036 -2.90068) (size 0.20066 1.00076)
    (layers F.Cu F.Paste F.Mask)
    (clearance 0.09906)
  )
  (pad 1_43 connect rect (at 4.2037 -2.90068) (size 0.20066 1.00076)
    (layers F.Cu F.Paste F.Mask)
    (clearance 0.09906)
  )
  (pad 1_44 connect rect (at 4.60502 -2.90068) (size 0.20066 1.00076)
    (layers F.Cu F.Paste F.Mask)
    (clearance 0.09906)
  )
  (pad 1_64 connect rect (at 12.60348 -2.90068) (size 0.20066 1.00076)
    (layers F.Cu F.Paste F.Mask)
    (clearance 0.09906)
  )
  (pad 1_63 connect rect (at 12.20216 -2.90068) (size 0.20066 1.00076)
    (layers F.Cu F.Paste F.Mask)
    (clearance 0.09906)
  )
  (pad 1_61 connect rect (at 11.40206 -2.90068) (size 0.20066 1.00076)
    (layers F.Cu F.Paste F.Mask)
    (clearance 0.09906)
  )
  (pad 1_62 connect rect (at 11.80338 -2.90068) (size 0.20066 1.00076)
    (layers F.Cu F.Paste F.Mask)
    (clearance 0.09906)
  )
  (pad 1_58 connect rect (at 10.20318 -2.90068) (size 0.20066 1.00076)
    (layers F.Cu F.Paste F.Mask)
    (clearance 0.09906)
  )
  (pad 1_57 connect rect (at 9.80186 -2.90068) (size 0.20066 1.00076)
    (layers F.Cu F.Paste F.Mask)
    (clearance 0.09906)
  )
  (pad 1_59 connect rect (at 10.60196 -2.90068) (size 0.20066 1.00076)
    (layers F.Cu F.Paste F.Mask)
    (clearance 0.09906)
  )
  (pad 1_60 connect rect (at 11.00328 -2.90068) (size 0.20066 1.00076)
    (layers F.Cu F.Paste F.Mask)
    (clearance 0.09906)
  )
  (pad 1_52 connect rect (at 7.80542 -2.90068) (size 0.20066 1.00076)
    (layers F.Cu F.Paste F.Mask)
    (clearance 0.09906)
  )
  (pad 1_51 connect rect (at 7.4041 -2.90068) (size 0.20066 1.00076)
    (layers F.Cu F.Paste F.Mask)
    (clearance 0.09906)
  )
  (pad 1_49 connect rect (at 6.604 -2.90068) (size 0.20066 1.00076)
    (layers F.Cu F.Paste F.Mask)
    (clearance 0.09906)
  )
  (pad 1_50 connect rect (at 7.00532 -2.90068) (size 0.20066 1.00076)
    (layers F.Cu F.Paste F.Mask)
    (clearance 0.09906)
  )
  (pad 1_54 connect rect (at 8.60552 -2.90068) (size 0.20066 1.00076)
    (layers F.Cu F.Paste F.Mask)
    (clearance 0.09906)
  )
  (pad 1_53 connect rect (at 8.2042 -2.90068) (size 0.20066 1.00076)
    (layers F.Cu F.Paste F.Mask)
    (clearance 0.09906)
  )
  (pad 1_55 connect rect (at 9.0043 -2.90068) (size 0.20066 1.00076)
    (layers F.Cu F.Paste F.Mask)
    (clearance 0.09906)
  )
  (pad 1_56 connect rect (at 9.40562 -2.90068) (size 0.20066 1.00076)
    (layers F.Cu F.Paste F.Mask)
    (clearance 0.09906)
  )
  (pad 1_72 connect rect (at 15.80642 -2.90068) (size 0.20066 1.00076)
    (layers F.Cu F.Paste F.Mask)
    (clearance 0.09906)
  )
  (pad 1_71 connect rect (at 15.4051 -2.90068) (size 0.20066 1.00076)
    (layers F.Cu F.Paste F.Mask)
    (clearance 0.09906)
  )
  (pad 1_69 connect rect (at 14.605 -2.90068) (size 0.20066 1.00076)
    (layers F.Cu F.Paste F.Mask)
    (clearance 0.09906)
  )
  (pad 1_70 connect rect (at 15.00632 -2.90068) (size 0.20066 1.00076)
    (layers F.Cu F.Paste F.Mask)
    (clearance 0.09906)
  )
  (pad 1_66 connect rect (at 13.40612 -2.90068) (size 0.20066 1.00076)
    (layers F.Cu F.Paste F.Mask)
    (clearance 0.09906)
  )
  (pad 1_65 connect rect (at 13.0048 -2.90068) (size 0.20066 1.00076)
    (layers F.Cu F.Paste F.Mask)
    (clearance 0.09906)
  )
  (pad 1_67 connect rect (at 13.8049 -2.90068) (size 0.20066 1.00076)
    (layers F.Cu F.Paste F.Mask)
    (clearance 0.09906)
  )
  (pad 1_68 connect rect (at 14.20622 -2.90068) (size 0.20066 1.00076)
    (layers F.Cu F.Paste F.Mask)
    (clearance 0.09906)
  )
  (pad 1_76 connect rect (at 17.40408 -2.90068) (size 0.20066 1.00076)
    (layers F.Cu F.Paste F.Mask)
    (clearance 0.09906)
  )
  (pad 1_75 connect rect (at 17.00276 -2.90068) (size 0.20066 1.00076)
    (layers F.Cu F.Paste F.Mask)
    (clearance 0.09906)
  )
  (pad 1_73 connect rect (at 16.20266 -2.90068) (size 0.20066 1.00076)
    (layers F.Cu F.Paste F.Mask)
    (clearance 0.09906)
  )
  (pad 1_74 connect rect (at 16.60398 -2.90068) (size 0.20066 1.00076)
    (layers F.Cu F.Paste F.Mask)
    (clearance 0.09906)
  )
  (pad 1_78 connect rect (at 18.20418 -2.90068) (size 0.20066 1.00076)
    (layers F.Cu F.Paste F.Mask)
    (clearance 0.09906)
  )
  (pad 1_77 connect rect (at 17.80286 -2.90068) (size 0.20066 1.00076)
    (layers F.Cu F.Paste F.Mask)
    (clearance 0.09906)
  )
  (pad 1_79 connect rect (at 18.60296 -2.90068) (size 0.20066 1.00076)
    (layers F.Cu F.Paste F.Mask)
    (clearance 0.09906)
  )
  (pad 1_80 connect rect (at 19.00428 -2.90068) (size 0.20066 1.00076)
    (layers F.Cu F.Paste F.Mask)
    (clearance 0.09906)
  )
  (pad 2_80 connect rect (at 19.00682 -21.3995) (size 0.20066 1.00076)
    (layers F.Cu F.Paste F.Mask)
    (clearance 0.09906)
  )
  (pad 2_79 connect rect (at 18.6055 -21.3995) (size 0.20066 1.00076)
    (layers F.Cu F.Paste F.Mask)
    (clearance 0.09906)
  )
  (pad 2_77 connect rect (at 17.8054 -21.3995) (size 0.20066 1.00076)
    (layers F.Cu F.Paste F.Mask)
    (clearance 0.09906)
  )
  (pad 2_78 connect rect (at 18.20672 -21.3995) (size 0.20066 1.00076)
    (layers F.Cu F.Paste F.Mask)
    (clearance 0.09906)
  )
  (pad 2_74 connect rect (at 16.60652 -21.3995) (size 0.20066 1.00076)
    (layers F.Cu F.Paste F.Mask)
    (clearance 0.09906)
  )
  (pad 2_73 connect rect (at 16.2052 -21.3995) (size 0.20066 1.00076)
    (layers F.Cu F.Paste F.Mask)
    (clearance 0.09906)
  )
  (pad 2_75 connect rect (at 17.0053 -21.3995) (size 0.20066 1.00076)
    (layers F.Cu F.Paste F.Mask)
    (clearance 0.09906)
  )
  (pad 2_76 connect rect (at 17.40662 -21.3995) (size 0.20066 1.00076)
    (layers F.Cu F.Paste F.Mask)
    (clearance 0.09906)
  )
  (pad 2_68 connect rect (at 14.20876 -21.3995) (size 0.20066 1.00076)
    (layers F.Cu F.Paste F.Mask)
    (clearance 0.09906)
  )
  (pad 2_67 connect rect (at 13.80744 -21.3995) (size 0.20066 1.00076)
    (layers F.Cu F.Paste F.Mask)
    (clearance 0.09906)
  )
  (pad 2_65 connect rect (at 13.00734 -21.3995) (size 0.20066 1.00076)
    (layers F.Cu F.Paste F.Mask)
    (clearance 0.09906)
  )
  (pad 2_66 connect rect (at 13.40866 -21.3995) (size 0.20066 1.00076)
    (layers F.Cu F.Paste F.Mask)
    (clearance 0.09906)
  )
  (pad 2_70 connect rect (at 15.00886 -21.3995) (size 0.20066 1.00076)
    (layers F.Cu F.Paste F.Mask)
    (clearance 0.09906)
  )
  (pad 2_69 connect rect (at 14.60754 -21.3995) (size 0.20066 1.00076)
    (layers F.Cu F.Paste F.Mask)
    (clearance 0.09906)
  )
  (pad 2_71 connect rect (at 15.40764 -21.3995) (size 0.20066 1.00076)
    (layers F.Cu F.Paste F.Mask)
    (clearance 0.09906)
  )
  (pad 2_72 connect rect (at 15.80896 -21.3995) (size 0.20066 1.00076)
    (layers F.Cu F.Paste F.Mask)
    (clearance 0.09906)
  )
  (pad 2_56 connect rect (at 9.40816 -21.3995) (size 0.20066 1.00076)
    (layers F.Cu F.Paste F.Mask)
    (clearance 0.09906)
  )
  (pad 2_55 connect rect (at 9.00684 -21.3995) (size 0.20066 1.00076)
    (layers F.Cu F.Paste F.Mask)
    (clearance 0.09906)
  )
  (pad 2_53 connect rect (at 8.20674 -21.3995) (size 0.20066 1.00076)
    (layers F.Cu F.Paste F.Mask)
    (clearance 0.09906)
  )
  (pad 2_54 connect rect (at 8.60806 -21.3995) (size 0.20066 1.00076)
    (layers F.Cu F.Paste F.Mask)
    (clearance 0.09906)
  )
  (pad 2_50 connect rect (at 7.00786 -21.3995) (size 0.20066 1.00076)
    (layers F.Cu F.Paste F.Mask)
    (clearance 0.09906)
  )
  (pad 2_49 connect rect (at 6.60654 -21.3995) (size 0.20066 1.00076)
    (layers F.Cu F.Paste F.Mask)
    (clearance 0.09906)
  )
  (pad 2_51 connect rect (at 7.40664 -21.3995) (size 0.20066 1.00076)
    (layers F.Cu F.Paste F.Mask)
    (clearance 0.09906)
  )
  (pad 2_52 connect rect (at 7.80796 -21.3995) (size 0.20066 1.00076)
    (layers F.Cu F.Paste F.Mask)
    (clearance 0.09906)
  )
  (pad 2_60 connect rect (at 11.00582 -21.3995) (size 0.20066 1.00076)
    (layers F.Cu F.Paste F.Mask)
    (clearance 0.09906)
  )
  (pad 2_59 connect rect (at 10.6045 -21.3995) (size 0.20066 1.00076)
    (layers F.Cu F.Paste F.Mask)
    (clearance 0.09906)
  )
  (pad 2_57 connect rect (at 9.8044 -21.3995) (size 0.20066 1.00076)
    (layers F.Cu F.Paste F.Mask)
    (clearance 0.09906)
  )
  (pad 2_58 connect rect (at 10.20572 -21.3995) (size 0.20066 1.00076)
    (layers F.Cu F.Paste F.Mask)
    (clearance 0.09906)
  )
  (pad 2_62 connect rect (at 11.80592 -21.3995) (size 0.20066 1.00076)
    (layers F.Cu F.Paste F.Mask)
    (clearance 0.09906)
  )
  (pad 2_61 connect rect (at 11.4046 -21.3995) (size 0.20066 1.00076)
    (layers F.Cu F.Paste F.Mask)
    (clearance 0.09906)
  )
  (pad 2_63 connect rect (at 12.2047 -21.3995) (size 0.20066 1.00076)
    (layers F.Cu F.Paste F.Mask)
    (clearance 0.09906)
  )
  (pad 2_64 connect rect (at 12.60602 -21.3995) (size 0.20066 1.00076)
    (layers F.Cu F.Paste F.Mask)
    (clearance 0.09906)
  )
  (pad 2_44 connect rect (at 4.60756 -21.3995) (size 0.20066 1.00076)
    (layers F.Cu F.Paste F.Mask)
    (clearance 0.09906)
  )
  (pad 2_43 connect rect (at 4.20624 -21.3995) (size 0.20066 1.00076)
    (layers F.Cu F.Paste F.Mask)
    (clearance 0.09906)
  )
  (pad 2_41 connect rect (at 3.40614 -21.3995) (size 0.20066 1.00076)
    (layers F.Cu F.Paste F.Mask)
    (clearance 0.09906)
  )
  (pad 2_42 connect rect (at 3.80746 -21.3995) (size 0.20066 1.00076)
    (layers F.Cu F.Paste F.Mask)
    (clearance 0.09906)
  )
  (pad 2_46 connect rect (at 5.40766 -21.3995) (size 0.20066 1.00076)
    (layers F.Cu F.Paste F.Mask)
    (clearance 0.09906)
  )
  (pad 2_45 connect rect (at 5.00634 -21.3995) (size 0.20066 1.00076)
    (layers F.Cu F.Paste F.Mask)
    (clearance 0.09906)
  )
  (pad 2_47 connect rect (at 5.80644 -21.3995) (size 0.20066 1.00076)
    (layers F.Cu F.Paste F.Mask)
    (clearance 0.09906)
  )
  (pad 2_48 connect rect (at 6.20776 -21.3995) (size 0.20066 1.00076)
    (layers F.Cu F.Paste F.Mask)
    (clearance 0.09906)
  )
  (pad 2_33 connect rect (at 6.20776 -18.59788) (size 0.20066 1.00076)
    (layers F.Cu F.Paste F.Mask)
    (clearance 0.09906)
  )
  (pad 2_34 connect rect (at 5.80644 -18.59788) (size 0.20066 1.00076)
    (layers F.Cu F.Paste F.Mask)
    (clearance 0.09906)
  )
  (pad 2_36 connect rect (at 5.00634 -18.59788) (size 0.20066 1.00076)
    (layers F.Cu F.Paste F.Mask)
    (clearance 0.09906)
  )
  (pad 2_35 connect rect (at 5.40766 -18.59788) (size 0.20066 1.00076)
    (layers F.Cu F.Paste F.Mask)
    (clearance 0.09906)
  )
  (pad 2_39 connect rect (at 3.80746 -18.59788) (size 0.20066 1.00076)
    (layers F.Cu F.Paste F.Mask)
    (clearance 0.09906)
  )
  (pad 2_40 connect rect (at 3.4036 -18.59788) (size 0.20066 1.00076)
    (layers F.Cu F.Paste F.Mask)
    (clearance 0.09906)
  )
  (pad 2_38 connect rect (at 4.20624 -18.59788) (size 0.20066 1.00076)
    (layers F.Cu F.Paste F.Mask)
    (clearance 0.09906)
  )
  (pad 2_37 connect rect (at 4.60756 -18.59788) (size 0.20066 1.00076)
    (layers F.Cu F.Paste F.Mask)
    (clearance 0.09906)
  )
  (pad 2_17 connect rect (at 12.60602 -18.59788) (size 0.20066 1.00076)
    (layers F.Cu F.Paste F.Mask)
    (clearance 0.09906)
  )
  (pad 2_18 connect rect (at 12.2047 -18.59788) (size 0.20066 1.00076)
    (layers F.Cu F.Paste F.Mask)
    (clearance 0.09906)
  )
  (pad 2_20 connect rect (at 11.4046 -18.59788) (size 0.20066 1.00076)
    (layers F.Cu F.Paste F.Mask)
    (clearance 0.09906)
  )
  (pad 2_19 connect rect (at 11.80592 -18.59788) (size 0.20066 1.00076)
    (layers F.Cu F.Paste F.Mask)
    (clearance 0.09906)
  )
  (pad 2_23 connect rect (at 10.20572 -18.59788) (size 0.20066 1.00076)
    (layers F.Cu F.Paste F.Mask)
    (clearance 0.09906)
  )
  (pad 2_24 connect rect (at 9.8044 -18.59788) (size 0.20066 1.00076)
    (layers F.Cu F.Paste F.Mask)
    (clearance 0.09906)
  )
  (pad 2_22 connect rect (at 10.6045 -18.59788) (size 0.20066 1.00076)
    (layers F.Cu F.Paste F.Mask)
    (clearance 0.09906)
  )
  (pad 2_21 connect rect (at 11.00582 -18.59788) (size 0.20066 1.00076)
    (layers F.Cu F.Paste F.Mask)
    (clearance 0.09906)
  )
  (pad 2_29 connect rect (at 7.80796 -18.59788) (size 0.20066 1.00076)
    (layers F.Cu F.Paste F.Mask)
    (clearance 0.09906)
  )
  (pad 2_30 connect rect (at 7.40664 -18.59788) (size 0.20066 1.00076)
    (layers F.Cu F.Paste F.Mask)
    (clearance 0.09906)
  )
  (pad 2_32 connect rect (at 6.60654 -18.59788) (size 0.20066 1.00076)
    (layers F.Cu F.Paste F.Mask)
    (clearance 0.09906)
  )
  (pad 2_31 connect rect (at 7.00786 -18.59788) (size 0.20066 1.00076)
    (layers F.Cu F.Paste F.Mask)
    (clearance 0.09906)
  )
  (pad 2_27 connect rect (at 8.60806 -18.59788) (size 0.20066 1.00076)
    (layers F.Cu F.Paste F.Mask)
    (clearance 0.09906)
  )
  (pad 2_28 connect rect (at 8.20674 -18.59788) (size 0.20066 1.00076)
    (layers F.Cu F.Paste F.Mask)
    (clearance 0.09906)
  )
  (pad 2_26 connect rect (at 9.00684 -18.59788) (size 0.20066 1.00076)
    (layers F.Cu F.Paste F.Mask)
    (clearance 0.09906)
  )
  (pad 2_25 connect rect (at 9.40816 -18.59788) (size 0.20066 1.00076)
    (layers F.Cu F.Paste F.Mask)
    (clearance 0.09906)
  )
  (pad 2_9 connect rect (at 15.80896 -18.59788) (size 0.20066 1.00076)
    (layers F.Cu F.Paste F.Mask)
    (clearance 0.09906)
  )
  (pad 2_10 connect rect (at 15.40764 -18.59788) (size 0.20066 1.00076)
    (layers F.Cu F.Paste F.Mask)
    (clearance 0.09906)
  )
  (pad 2_12 connect rect (at 14.60754 -18.59788) (size 0.20066 1.00076)
    (layers F.Cu F.Paste F.Mask)
    (clearance 0.09906)
  )
  (pad 2_11 connect rect (at 15.00886 -18.59788) (size 0.20066 1.00076)
    (layers F.Cu F.Paste F.Mask)
    (clearance 0.09906)
  )
  (pad 2_15 connect rect (at 13.40866 -18.59788) (size 0.20066 1.00076)
    (layers F.Cu F.Paste F.Mask)
    (clearance 0.09906)
  )
  (pad 2_16 connect rect (at 13.00734 -18.59788) (size 0.20066 1.00076)
    (layers F.Cu F.Paste F.Mask)
    (clearance 0.09906)
  )
  (pad 2_14 connect rect (at 13.80744 -18.59788) (size 0.20066 1.00076)
    (layers F.Cu F.Paste F.Mask)
    (clearance 0.09906)
  )
  (pad 2_13 connect rect (at 14.20876 -18.59788) (size 0.20066 1.00076)
    (layers F.Cu F.Paste F.Mask)
    (clearance 0.09906)
  )
  (pad 2_5 connect rect (at 17.40662 -18.59788) (size 0.20066 1.00076)
    (layers F.Cu F.Paste F.Mask)
    (clearance 0.09906)
  )
  (pad 2_6 connect rect (at 17.0053 -18.59788) (size 0.20066 1.00076)
    (layers F.Cu F.Paste F.Mask)
    (clearance 0.09906)
  )
  (pad 2_8 connect rect (at 16.2052 -18.59788) (size 0.20066 1.00076)
    (layers F.Cu F.Paste F.Mask)
    (clearance 0.09906)
  )
  (pad 2_7 connect rect (at 16.60652 -18.59788) (size 0.20066 1.00076)
    (layers F.Cu F.Paste F.Mask)
    (clearance 0.09906)
  )
  (pad 2_3 connect rect (at 18.20672 -18.59788) (size 0.20066 1.00076)
    (layers F.Cu F.Paste F.Mask)
    (clearance 0.09906)
  )
  (pad 2_4 connect rect (at 17.8054 -18.59788) (size 0.20066 1.00076)
    (layers F.Cu F.Paste F.Mask)
    (clearance 0.09906)
  )
  (pad 2_2 connect rect (at 18.6055 -18.59788) (size 0.20066 1.00076)
    (layers F.Cu F.Paste F.Mask)
    (clearance 0.09906)
  )
  (pad 2_1 connect rect (at 19.00682 -18.59788) (size 0.20066 1.00076)
    (layers F.Cu F.Paste F.Mask)
    (clearance 0.09906)
  )
  (pad H2 thru_hole circle (at 0.00254 0.00254) (size 4.50088 4.50088) (drill 2.79908)
    (layers *.Cu *.Mask F.SilkS)
  )
)
